Characterising rocky intertidal biodiversity using environmental DNA metabarcoding from local to national scales
…
# Compute the total count per phylum
function_species_count$phylum = as.factor(function_species_count$phylum)

# Group by phylum and simple, and summarize the total count
total_count <- function_species_count %>%
  dplyr::group_by(phylum, simple) %>%  # Grouping by both phylum and simple
  dplyr::summarise(total_count = sum(count, na.rm = TRUE), .groups = 'drop')  # Summarize total count

total_count

# A tibble: 33 × 3
   phylum       simple       total_count
   <fct>        <chr>              <int>
 1 Annelida     Macrobenthos         149
 2 Annelida     Not found              1
 3 Arthropoda   Macrobenthos         110
 4 Arthropoda   Not found             24
 5 Arthropoda   Other                 22
 6 Bryozoa      Macrobenthos          43
 7 Chaetognatha Macrobenthos           1
 8 Chlorophyta  Macroalgae             5
 9 Chlorophyta  Other                 18
10 Chordata     Macrobenthos          19
# ℹ 23 more rows
…
